{
  "kind": "StatefulSet",
  "id": "ci",
  "image": "liferaycloud/jenkins:2.190.1-lcp5408-6",
  "deploy": false,
  "memory": 8192,
  "cpu": 4,
  "scale": 1,
  "volumes": {
    "ciData": "/var/jenkins_home"
  },
  "loadBalancer": {
    "targetPort": 8080
  },
  "readinessProbe": {
    "httpGet": {
      "path": "/login",
      "port": 8080
    },
    "initialDelaySeconds": 60,
    "timeoutSeconds": 10,
    "failureThreshold": 12
  },
  "livenessProbe": {
    "httpGet": {
      "path": "/login",
      "port": 8080
    },
    "initialDelaySeconds": 300,
    "timeoutSeconds": 10,
    "failureThreshold": 12
  },
  "env": {
    "JENKINS_URL": "https://ci-lfrpedrolcp54085-infra.lfr.sh",
    "JENKINS_ADMIN_USER_NAME": "lfrpedrolcp54085",
    "JENKINS_EMAIL_NOTIFICATIONS_FROM": "Jenkins CI - lfrpedrolcp54085 <lfrpedrolcp54085@liferay.com>",
    "LCP_CI_SCM_REPOSITORY": "dxpcloud-dev/lfrpedrolcp54085",
    "LCP_CI_WEBHOOK_TOKEN": "ON0MU21zJG",
    "LCP_CI_SCM_PROVIDER": "github"
  },
  "environments": {
    "infra": {
      "deploy": true
    }
  }
}